{
    "marcas": [
        {
            "valor": "ABARTH",
            "id": 0
        },
        {
            "valor": "BMW",
            "id": 1
        },
        {
            "valor": "FORD",
            "id": 2
        },
        {
            "valor": "NISSAN",
            "id": 3
        }
    ]
}